<div align="center"><br>
<table border="0" cellspacing="2" cellpadding="2">
   <tr>
      <td><div align="center"><h6>All
            content, logos, pictures, and media are the property of USNationals.NET!<br />
        Copyright &copy; 2002, 2003, 2005, &amp; 2005 <br />
        If you have any comments, questions, or contributions send them to <a href="contact.php">US.</h6></div></td></tr>
</table>
</div>
